{
  "users": [
    {
      "user": "Jack",
      "avatar": "https://padfieldstout.com/wp-content/uploads/2020/01/John_Easter_Padfield_Stout.jpg",
      "email": "jack@gmail.com",
      "login": "admin",
      "password": "admin",
      "id": "1448c602-8c9b-4835-9590-0309cdd30856",
      "createdAt": "2022-01-29T21:02:07.110Z",
      "updatedAt": ""
    },
    {
      "user": "Ruth",
      "avatar": "https://resizing.flixster.com/kr0IphfLGZqni5JOWDS2P1-zod4=/280x250/v1.cjs0OTQ2NztqOzE4NDk1OzEyMDA7MjgwOzI1MA",
      "email": "ruth@gmail.com",
      "login": "ruth",
      "password": "ruth",
      "id": "9e243930-83c9-11e9-8e0c-8f1a686f4ce4",
      "createdAt": "2022-01-29T21:05:07.266Z",
      "updatedAt": ""
    },
    {
      "user": "Wendy",
      "avatar": "https://resizing.flixster.com/EVAkglctn7E9B0hVKJrueplabuQ=/220x196/v1.cjs0NjYwNjtqOzE4NDk1OzEyMDA7MjIwOzE5Ng",
      "email": "wendy@gmail.com",
      "login": "wendy",
      "password": "wendy",
      "id": "533b5230-1b8f-11e8-9629-c7eca82aa7bd",
      "createdAt": "2022-01-29T21:05:55.125Z",
      "updatedAt": ""
    },
    {
      "user": "Helen",
      "avatar": "https://resizing.flixster.com/PCEX63VBu7wVvdt9Eq-FrTI6d_4=/300x300/v1.cjs0MzYxNjtqOzE4NDk1OzEyMDA7MzQ5OzMxMQ",
      "email": "helen@gmail.com",
      "login": "helen",
      "password": "helen",
      "id": "4b003c20-1b8f-11e8-9629-c7eca82aa7bd",
      "createdAt": "2022-01-29T21:06:18.276Z",
      "updatedAt": ""
    },
    {
      "user": "Ben",
      "avatar": "https://www.aceshowbiz.com/images/photo/tom_pelphrey.jpg",
      "email": "ben@gmail.com",
      "login": "ben",
      "password": "ben",
      "id": "5328dba1-1b8f-11e8-9629-c7eca82aa7bd",
      "createdAt": "2022-01-29T21:06:34.808Z",
      "updatedAt": ""
    }
  ],
  "messages": [
    {
      "userId": "9e243930-83c9-11e9-8e0c-8f1a686f4ce4",
      "avatar": "https://resizing.flixster.com/kr0IphfLGZqni5JOWDS2P1-zod4=/280x250/v1.cjs0OTQ2NztqOzE4NDk1OzEyMDA7MjgwOzI1MA",
      "user": "Ruth",
      "text": "I don’t *** understand. It's the Panama accounts",
      "id": "0fba3348-a774-47a1-a8e6-ff041cdc98a1",
      "createdAt": "2022-01-29T21:43:53.122Z",
      "updatedAt": ""
    },
    {
      "userId": "533b5230-1b8f-11e8-9629-c7eca82aa7bd",
      "avatar": "https://resizing.flixster.com/EVAkglctn7E9B0hVKJrueplabuQ=/220x196/v1.cjs0NjYwNjtqOzE4NDk1OzEyMDA7MjIwOzE5Ng",
      "user": "Wendy",
      "text": "Tells exactly what happened.",
      "id": "9bad7ffd-94fa-40fd-82e7-4227f4a7506a",
      "createdAt": "2022-01-29T21:44:56.115Z",
      "updatedAt": ""
    },
    {
      "userId": "533b5230-1b8f-11e8-9629-c7eca82aa7bd",
      "avatar": "https://resizing.flixster.com/EVAkglctn7E9B0hVKJrueplabuQ=/220x196/v1.cjs0NjYwNjtqOzE4NDk1OzEyMDA7MjIwOzE5Ng",
      "user": "Wendy",
      "text": "You were doing your daily bank transfers and…",
      "id": "5b58ef00-ef36-42b1-9160-5f9a323ce2c5",
      "createdAt": "2022-01-29T21:45:24.858Z",
      "updatedAt": ""
    },
    {
      "userId": "9e243930-83c9-11e9-8e0c-8f1a686f4ce4",
      "avatar": "https://resizing.flixster.com/kr0IphfLGZqni5JOWDS2P1-zod4=/280x250/v1.cjs0OTQ2NztqOzE4NDk1OzEyMDA7MjgwOzI1MA",
      "user": "Ruth",
      "text": "Yes, like I’ve been doing every *** day without red *** flag",
      "id": "428a59ba-e7fc-466b-9282-57028beb6387",
      "createdAt": "2022-01-29T21:45:49.625Z",
      "updatedAt": ""
    },
    {
      "userId": "9e243930-83c9-11e9-8e0c-8f1a686f4ce4",
      "avatar": "https://resizing.flixster.com/kr0IphfLGZqni5JOWDS2P1-zod4=/280x250/v1.cjs0OTQ2NztqOzE4NDk1OzEyMDA7MjgwOzI1MA",
      "user": "Ruth",
      "text": "There`s never been a *** problem.",
      "id": "de6e0fd7-3f6b-48e4-8050-034f8c91989c",
      "createdAt": "2022-01-29T21:46:11.534Z",
      "updatedAt": ""
    },
    {
      "userId": "4b003c20-1b8f-11e8-9629-c7eca82aa7bd",
      "avatar": "https://resizing.flixster.com/PCEX63VBu7wVvdt9Eq-FrTI6d_4=/300x300/v1.cjs0MzYxNjtqOzE4NDk1OzEyMDA7MzQ5OzMxMQ",
      "user": "Helen",
      "text": "Why this account?",
      "id": "af0802be-6a87-43cf-95d6-8badd4117e90",
      "createdAt": "2022-01-29T21:46:35.849Z",
      "updatedAt": ""
    },
    {
      "userId": "9e243930-83c9-11e9-8e0c-8f1a686f4ce4",
      "avatar": "https://resizing.flixster.com/kr0IphfLGZqni5JOWDS2P1-zod4=/280x250/v1.cjs0OTQ2NztqOzE4NDk1OzEyMDA7MjgwOzI1MA",
      "user": "Ruth",
      "text": "I don`t *** know! I don`t know!",
      "id": "208b4e89-c1bb-4ed4-88ea-b9367f047e18",
      "createdAt": "2022-01-29T21:47:07.577Z",
      "updatedAt": ""
    },
    {
      "userId": "5328dba1-1b8f-11e8-9629-c7eca82aa7bd",
      "avatar": "https://www.aceshowbiz.com/images/photo/tom_pelphrey.jpg",
      "user": "Ben",
      "text": "What the ** is a red flag anyway?",
      "id": "395ddb7d-5b2b-4517-b093-448587be2e0c",
      "createdAt": "2022-01-29T21:47:30.074Z",
      "updatedAt": ""
    },
    {
      "userId": "4b003c20-1b8f-11e8-9629-c7eca82aa7bd",
      "avatar": "https://resizing.flixster.com/PCEX63VBu7wVvdt9Eq-FrTI6d_4=/300x300/v1.cjs0MzYxNjtqOzE4NDk1OzEyMDA7MzQ5OzMxMQ",
      "user": "Helen",
      "text": "You said you could handle things",
      "id": "c05754c5-0058-4b0d-a30f-91e89c97e6ef",
      "createdAt": "2022-01-29T21:47:50.156Z",
      "updatedAt": ""
    },
    {
      "userId": "9e243930-83c9-11e9-8e0c-8f1a686f4ce4",
      "avatar": "https://resizing.flixster.com/kr0IphfLGZqni5JOWDS2P1-zod4=/280x250/v1.cjs0OTQ2NztqOzE4NDk1OzEyMDA7MjgwOzI1MA",
      "user": "Ruth",
      "text": "I did what he taught me.",
      "id": "c769e596-4413-473b-9c98-559b1ad7a712",
      "createdAt": "2022-01-29T21:48:26.772Z",
      "updatedAt": ""
    },
    {
      "userId": "9e243930-83c9-11e9-8e0c-8f1a686f4ce4",
      "avatar": "https://resizing.flixster.com/kr0IphfLGZqni5JOWDS2P1-zod4=/280x250/v1.cjs0OTQ2NztqOzE4NDk1OzEyMDA7MjgwOzI1MA",
      "user": "Ruth",
      "text": "it`s not my fucking fault!",
      "id": "69900bd5-cf45-4714-be59-0be752239fac",
      "createdAt": "2022-01-29T21:48:49.185Z",
      "updatedAt": ""
    },
    {
      "userId": "533b5230-1b8f-11e8-9629-c7eca82aa7bd",
      "avatar": "https://resizing.flixster.com/EVAkglctn7E9B0hVKJrueplabuQ=/220x196/v1.cjs0NjYwNjtqOzE4NDk1OzEyMDA7MjIwOzE5Ng",
      "user": "Wendy",
      "text": "Can you fix this? Can you fix it?",
      "id": "a44a31ab-ce7b-4465-ac6c-8c95365ff094",
      "createdAt": "2022-01-29T21:49:14.677Z",
      "updatedAt": ""
    },
    {
      "userId": "4b003c20-1b8f-11e8-9629-c7eca82aa7bd",
      "avatar": "https://resizing.flixster.com/PCEX63VBu7wVvdt9Eq-FrTI6d_4=/300x300/v1.cjs0MzYxNjtqOzE4NDk1OzEyMDA7MzQ5OzMxMQ",
      "user": "Helen",
      "text": "Her best is gonna get us all killed.",
      "id": "2f17c028-aa0f-4828-9d71-404b51fff4a3",
      "createdAt": "2022-01-29T21:49:38.324Z",
      "updatedAt": ""
    },
    {
      "userId": "9e243930-83c9-11e9-8e0c-8f1a686f4ce4",
      "avatar": "https://resizing.flixster.com/kr0IphfLGZqni5JOWDS2P1-zod4=/280x250/v1.cjs0OTQ2NztqOzE4NDk1OzEyMDA7MjgwOzI1MA",
      "user": "Ruth",
      "text": "I don`t know how!",
      "id": "deefd685-b93a-46fe-8417-5c76c32f1ca8",
      "createdAt": "2022-01-29T21:49:57.014Z",
      "updatedAt": ""
    },
    {
      "userId": "9e243930-83c9-11e9-8e0c-8f1a686f4ce4",
      "avatar": "https://resizing.flixster.com/kr0IphfLGZqni5JOWDS2P1-zod4=/280x250/v1.cjs0OTQ2NztqOzE4NDk1OzEyMDA7MjgwOzI1MA",
      "user": "Ruth",
      "text": "it means that the accounts frozen that cause the feds might think that there’s a crime being committed.",
      "id": "133ab4d3-01cc-4368-ba9d-d419a5b78550",
      "createdAt": "2022-01-29T21:50:14.419Z",
      "updatedAt": ""
    },
    {
      "userId": "9e243930-83c9-11e9-8e0c-8f1a686f4ce4",
      "avatar": "https://resizing.flixster.com/kr0IphfLGZqni5JOWDS2P1-zod4=/280x250/v1.cjs0OTQ2NztqOzE4NDk1OzEyMDA7MjgwOzI1MA",
      "user": "Ruth",
      "text": "Like by me",
      "id": "489d45ec-ff12-4383-89af-44479b619070",
      "createdAt": "2022-01-29T21:50:42.106Z",
      "updatedAt": ""
    },
    {
      "userId": "5328dba1-1b8f-11e8-9629-c7eca82aa7bd",
      "avatar": "https://www.aceshowbiz.com/images/photo/tom_pelphrey.jpg",
      "user": "Ben",
      "text": "aaaha!",
      "id": "24750bc0-09d9-4379-b271-841998512242",
      "createdAt": "2022-01-29T21:51:00.272Z",
      "updatedAt": ""
    },
    {
      "userId": "1448c602-8c9b-4835-9590-0309cdd30856",
      "avatar": "https://padfieldstout.com/wp-content/uploads/2020/01/John_Easter_Padfield_Stout.jpg",
      "user": "Jack",
      "text": "test",
      "id": "162b5bf4-56b1-4c26-a087-28023b9e5bfd",
      "createdAt": "2022-02-02T21:45:58.414Z",
      "updatedAt": ""
    }
  ]
}